Treinamento ML
…
── Operations 

• Re-order factor level to ref_level for: sexo_vitima

• Re-order factor level to ref_level for: raca_vitima

• Dummy variables from: all_nominal_predictors()

Com o uso do prep() e bake() é possível pre-processar esses passos a fim de observar como que ficam essas variáveis transformadas.

model_recipe |> prep() |> bake(new_data = NULL)

# A tibble: 688,783 × 7
   idade_vitima ocupante_motocicleta sexo_vitima_Feminino raca_vitima_Amarela
          <dbl> <fct>                               <dbl>               <dbl>
 1            9 nao_ocupante                            0                   0
 2           33 nao_ocupante                            0                   0
 3           33 nao_ocupante                            1                   0
 4           66 nao_ocupante                            0                   0
 5           47 nao_ocupante                            0                   0
 6            0 nao_ocupante                            0                   0
 7           17 nao_ocupante                            0                   0
 8           23 nao_ocupante                            0                   0
 9           45 nao_ocupante                            1                   0
10           23 nao_ocupante                            1                   0
# ℹ 688,773 more rows
# ℹ 3 more variables: raca_vitima_Branca <dbl>, raca_vitima_Indígena <dbl>,
#   raca_vitima_Parda <dbl>
…
Com os resultados, observa-se que apenas raca_vitima_Indígena apresentou um p-valor acima de 0.05. Excluindo raca_vitima_Parda, todos os coeficientes apresentaram uma razão de chances abaixo de 1.

Predições - Testando o modelo

Com o modelo calculado, é possível fazer uma predição com os dados de teste. A função augment() faz isso, tendo como entrada o objeto do modelo calculado - lr_fit - e os dados de teste - data_test. Isso retorna um dataset com os resultados previstos pelo modelo (.pred_class) as probabilidades numéricas da ocorrência ou não-ocorrência (.pred_ocupante e .pred_nao_ocupante)

predicted_values <- augment(lr_fit, data_test)

predicted_values

# A tibble: 172,197 × 7
   .pred_class  .pred_nao_ocupante .pred_ocupante ocupante_motocicleta
   <fct>                     <dbl>          <dbl> <fct>               
 1 nao_ocupante              0.715         0.285  ocupante            
 2 nao_ocupante              0.695         0.305  nao_ocupante        
 3 nao_ocupante              0.747         0.253  nao_ocupante        
 4 nao_ocupante              0.700         0.300  ocupante            
 5 nao_ocupante              0.649         0.351  nao_ocupante        
 6 nao_ocupante              0.670         0.330  nao_ocupante        
 7 nao_ocupante              0.837         0.163  nao_ocupante        
 8 nao_ocupante              0.844         0.156  nao_ocupante        
 9 nao_ocupante              0.909         0.0913 nao_ocupante        
10 nao_ocupante              0.622         0.378  nao_ocupante        
# ℹ 172,187 more rows
# ℹ 3 more variables: idade_vitima <dbl>, sexo_vitima <chr>, raca_vitima <chr>
…
